{
  "development": {
    "username": "root",
    "password": "password",
    "database": "teste_backend_ioasys",
    "host": "127.0.0.1",
    "port": "3306",
    "dialect": "mysql"
  },
  "test": {
    "username": "root",
    "password": null,
    "database": "database_test",
    "host": "127.0.0.1",
    "dialect": "mysql"
  },
  "production": {
    "username": "root",
    "password": null,
    "database": "database_production",
    "host": "127.0.0.1",
    "dialect": "mysql"
  }
}
